<svg width="17" height="18" viewBox="0 0 17 18" fill="none" xmlns="http://www.w3.org/2000/svg">
<path d="M10.5423 12.2766C10.8465 12.5543 11.3181 12.5329 11.5958 12.2288C11.8735 11.9246 11.8521 11.453 11.5479 11.1753L9.2098 9.04041V6.22713C9.2098 5.81529 8.87594 5.48142 8.4641 5.48142C8.05226 5.48142 7.7184 5.81529 7.7184 6.22713L7.7184 9.36932C7.7184 9.57885 7.80655 9.77872 7.96129 9.92L10.5423 12.2766Z" fill="#979797"/>
<path fill-rule="evenodd" clip-rule="evenodd" d="M3.72528 0.880391C4.22506 0.517281 4.92457 0.628072 5.28768 1.12785C5.52039 1.44814 5.55845 1.85047 5.42423 2.19371C6.32895 1.82992 7.31705 1.62972 8.35191 1.62972C9.36675 1.62972 10.3366 1.82225 11.227 2.17278C11.1023 1.83421 11.1435 1.44166 11.3715 1.12786C11.7346 0.628078 12.4341 0.517287 12.9339 0.880396L15.3037 2.60217C15.8035 2.96528 15.9143 3.66479 15.5512 4.16457C15.3052 4.50314 14.9048 4.66319 14.5168 4.61833C15.5732 5.95568 16.2037 7.64497 16.2037 9.48154C16.2037 13.818 12.6883 17.3334 8.35191 17.3334C4.01547 17.3334 0.500091 13.818 0.500092 9.48154C0.500091 7.64178 1.13283 5.94981 2.19257 4.61137C1.78918 4.67667 1.3646 4.51774 1.108 4.16456C0.744891 3.66479 0.855681 2.96528 1.35546 2.60217L3.72528 0.880391ZM2.73719 9.48154C2.73719 6.38062 5.25099 3.86682 8.35191 3.86682C11.4528 3.86682 13.9666 6.38062 13.9666 9.48154C13.9666 12.5825 11.4528 15.0962 8.35191 15.0962C5.25099 15.0962 2.73719 12.5825 2.73719 9.48154Z" fill="#979797"/>
</svg>
