<svg width="20" height="15" viewBox="0 0 20 15" fill="none" xmlns="http://www.w3.org/2000/svg">
<path d="M0.728333 4H12.3578V6H0.728333V4ZM0.728333 2H12.3578V0H0.728333V2ZM0.728333 10H8.12887V8H0.728333V10ZM16.5972 6.87L17.3478 6.16C17.7602 5.77 18.4262 5.77 18.8385 6.16L19.5891 6.87C20.0015 7.26 20.0015 7.89 19.5891 8.28L18.8385 8.99L16.5972 6.87ZM15.8466 7.58L10.2433 12.88V15H12.4846L18.0879 9.7L15.8466 7.58Z" fill="#646464"/>
</svg>
