<svg width="16" height="16" viewBox="0 0 16 16" fill="none" xmlns="http://www.w3.org/2000/svg">
  <path d="M2 4.66663H14" stroke="#2E2E2E" stroke-width="1.25" stroke-linecap="round"/>
  <path d="M2 8H10" stroke="#2E2E2E" stroke-width="1.25" stroke-linecap="round"/>
  <path d="M2 11.3334H4.66667" stroke="#2E2E2E" stroke-width="1.25" stroke-linecap="round"/>
</svg>
