<svg width="16" height="16" viewBox="0 0 16 16" fill="none" xmlns="http://www.w3.org/2000/svg">
<path fill-rule="evenodd" clip-rule="evenodd" d="M13.8963 14.5062C13.7598 11.3551 11.1721 8.85224 7.9998 8.85224C4.82749 8.85224 2.23976 11.3551 2.10367 14.4941L2.10326 14.5062H1.5C1.55769 12.7919 2.27429 11.2555 3.40282 10.1335L3.40322 10.1331C4.07717 9.44737 4.90386 8.91358 5.82846 8.58696L5.87314 8.57315L6.28913 8.42772L5.92514 8.17829C4.96195 7.508 4.33919 6.40669 4.33919 5.15954C4.33919 3.13485 5.98039 1.49365 8.00508 1.49365C10.0298 1.49365 11.671 3.13485 11.671 5.15954C11.671 6.40669 11.0482 7.508 10.0972 8.17016L10.085 8.17788L9.72102 8.42731L10.137 8.57274C11.1063 8.91317 11.933 9.44697 12.6061 10.1319L12.6069 10.1327C13.7322 11.2568 14.4452 12.7927 14.4996 14.4957L14.5 14.5058L13.8963 14.5062ZM7.9998 2.10991C6.30822 2.10991 4.93717 3.48097 4.93717 5.17254C4.93717 6.86411 6.30822 8.23516 7.9998 8.23516C9.69137 8.23516 11.0624 6.86411 11.0624 5.17254V5.17254C11.0624 3.48097 9.69137 2.10991 7.9998 2.10991V2.10991Z" fill="#9B9B9B"/>
</svg>
