<svg width="12" height="12" viewBox="0 0 12 12" fill="none" xmlns="http://www.w3.org/2000/svg">
<rect width="12" height="12" rx="6" fill="#1D83BB"/>
<path fill-rule="evenodd" clip-rule="evenodd" d="M8.06002 8.99984L7.51502 6.65684L9.33335 5.08117L6.93635 4.8755L6.00002 2.6665L5.06369 4.8755L2.66669 5.08117L4.48502 6.65684L3.94002 8.99984L6.00002 7.75717L8.06002 8.99984Z" fill="white"/>
</svg>
